METRO, Intro to R Workshop
…
---

# Select and Drop Columns
.pull-left[

```r
HR_dat %>% select(Age, JobLevel, Attrition)
```

```
## # A tibble: 1,470 x 3
##     Age JobLevel Attrition
##   <dbl>    <dbl> <chr>    
## 1    41        2 Yes      
## 2    49        2 No       
## 3    37        1 Yes      
## 4    33        1 No       
## 5    27        1 No       
## # ... with 1,465 more rows
```

```r
HR_dat %>% select(Age:BusinessTravel)
```

```
## # A tibble: 1,470 x 3
##     Age Attrition BusinessTravel   
##   <dbl> <chr>     <chr>            
## 1    41 Yes       Travel_Rarely    
## 2    49 No        Travel_Frequently
## 3    37 Yes       Travel_Rarely    
## 4    33 No        Travel_Frequently
## 5    27 No        Travel_Rarely    
## # ... with 1,465 more rows
```
]

--

.pull-right[

```r
HR_dat %>% select(-Attrition)
```

```
## # A tibble: 1,470 x 34
##     Age BusinessTravel   DailyRate Department     
##   <dbl> <chr>                <dbl> <chr>          
## 1    41 Travel_Rarely         1102 Sales          
## 2    49 Travel_Frequent~       279 Research & Dev~
## 3    37 Travel_Rarely         1373 Research & Dev~
## 4    33 Travel_Frequent~      1392 Research & Dev~
## 5    27 Travel_Rarely          591 Research & Dev~
## # ... with 1,465 more rows, and 30 more variable:
## #   DistanceFromHome <dbl>, ...
```

```r
HR_dat %>% select(contains("Job"))
```

```
## # A tibble: 1,470 x 4
##   JobInvolvement JobLevel JobRole       
##            <dbl>    <dbl> <chr>         
## 1              3        2 Sales Executi~
## 2              2        2 Research Scie~
## 3              2        1 Laboratory Te~
## 4              3        1 Research Scie~
## 5              3        1 Laboratory Te~
## # ... with 1,465 more rows, and 1 more
## #   variable: JobSatisfaction <dbl>
```
…
---

# Filter Cases

Select only males

```r
HR_dat %>% filter(Gender == "Male")
```

```
## # A tibble: 882 x 35
##    Gender   Age Attrition BusinessTravel DailyRate
##    <chr>  <dbl> <chr>     <chr>              <dbl>
##  1 Male      49 No        Travel_Freque~       279
##  2 Male      37 Yes       Travel_Rarely       1373
##  3 Male      27 No        Travel_Rarely        591
##  4 Male      32 No        Travel_Freque~      1005
##  5 Male      30 No        Travel_Rarely       1358
##  6 Male      38 No        Travel_Freque~       216
##  7 Male      36 No        Travel_Rarely       1299
##  8 Male      35 No        Travel_Rarely        809
##  9 Male      31 No        Travel_Rarely        670
## 10 Male      34 No        Travel_Rarely       1346
## # ... with 872 more rows, and 30 more variable:
## #   Department <chr>, ...
```

---

# Filter Cases

Select only employees over 40

```r
HR_dat %>% filter(Age > 40)
```

```
## # A tibble: 465 x 35
##      Age Attrition BusinessTravel    DailyRate
##    <dbl> <chr>     <chr>                 <dbl>
##  1    41 Yes       Travel_Rarely          1102
##  2    49 No        Travel_Frequently       279
##  3    59 No        Travel_Rarely          1324
##  4    53 No        Travel_Rarely          1219
##  5    53 No        Travel_Rarely          1282
##  6    42 No        Travel_Rarely           691
##  7    44 No        Travel_Rarely           477
##  8    46 No        Travel_Rarely           705
##  9    44 No        Travel_Rarely          1459
## 10    43 No        Travel_Rarely          1273
## # ... with 455 more rows, and 31 more variable:
## #   Department <chr>, ...
```

---

# Filter Cases

Select only employees who are Male and 40

```r
HR_dat %>% filter(Gender == "Male", Age > 40)
```

```
## # A tibble: 272 x 35
##    Gender   Age Attrition BusinessTravel DailyRate
##    <chr>  <dbl> <chr>     <chr>              <dbl>
##  1 Male      49 No        Travel_Freque~       279
##  2 Male      42 No        Travel_Rarely        691
##  3 Male      44 No        Travel_Rarely       1459
##  4 Male      50 Yes       Travel_Rarely        869
##  5 Male      46 No        Travel_Freque~      1211
##  6 Male      48 Yes       Travel_Rarely        626
##  7 Male      45 No        Travel_Rarely       1339
##  8 Male      45 No        Travel_Rarely        193
##  9 Male      46 No        Travel_Rarely        945
## 10 Male      55 No        Travel_Rarely        111
## # ... with 262 more rows, and 30 more variable:
## #   Department <chr>, ...
```
…
- Composites (addition, multiplication)

- Change factor orders

- Center or lag variables

```r
HR_dat %>%
  mutate(AnnualIncome = MonthlyIncome * 12, 
         WorkLifeAtComp = YearsAtCompany/TotalWorkingYears)
```

```
## # A tibble: 1,470 x 5
##   MonthlyIncome AnnualIncome TotalWorkingYears YearsAtCompany
##           <dbl>        <dbl>             <dbl>          <dbl>
## 1          5993        71916                 8              6
## 2          5130        61560                10             10
## 3          2090        25080                 7              0
## 4          2909        34908                 8              8
## 5          3468        41616                 6              2
## # ... with 1,465 more rows, and 1 more variable: LifeAtComp <dbl>
```
…
# Mutate

Convert attrition to a factor (for analyses) and average correlated tenure variables<sup>1</sup>
<br></br>
.footnote[<sup>1</sup> To use `mean` for individual rows across columns (e.g,. scoring scales) use `rowwise` prior to mutate]

```r
HR_dat %>%
  mutate(Attrition = factor(Attrition),
         TenComp = (YearsAtCompany + YearsInCurrentRole + YearsWithCurrManager)/3)
```

```
## # A tibble: 1,470 x 5
##   Attrition YearsAtCompany YearsInCurrentRole YearsWithCurrManager
##   <fct>              <dbl>              <dbl>                <dbl>
## 1 Yes                    6                  4                    5
## 2 No                    10                  7                    7
## 3 Yes                    0                  0                    0
## 4 No                     8                  7                    0
## 5 No                     2                  2                    2
## # ... with 1,465 more rows, and 1 more variable: TenComp <dbl>
```
…
---

### 3. Tidy and refine

- Put into *tidy* format: **a table with one-token-per-row**. A token is a meaningful unit of text, such as a word, sentence, or paragraph. 

```r
library(tidytext)

HR_rt_s %>%
* unnest_tokens(word, text)
```

```
## # A tibble: 457,586 x 3
##    created_at          screen_name word       
##    <dttm>              <chr>       <chr>      
##  1 2021-09-13 15:39:06 lizwebercmc we         
##  2 2021-09-13 15:39:06 lizwebercmc are        
##  3 2021-09-13 15:39:06 lizwebercmc researching
##  4 2021-09-13 15:39:06 lizwebercmc the        
##  5 2021-09-13 15:39:06 lizwebercmc impact     
##  6 2021-09-13 15:39:06 lizwebercmc of         
##  7 2021-09-13 15:39:06 lizwebercmc boards     
##  8 2021-09-13 15:39:06 lizwebercmc leaders    
##  9 2021-09-13 15:39:06 lizwebercmc amp        
## 10 2021-09-13 15:39:06 lizwebercmc planning   
## # ... with 457,576 more rows
```
…
